Alice Johnson,New York,New York,Computer Science
Benjamin Brown,Los Angeles,California,Psychology
Sophia Martinez,Chicago,Illinois,Nursing
Daniel Taylor,Houston,Texas,Biology
Emily Anderson,Phoenix,Arizona,Business Administration
Liam Thomas,Philadelphia,Pennsylvania,English
Olivia Garcia,San Antonio,Texas,Marketing
Ethan Rodriguez,San Diego,California,Mechanical Engineering
Ava Wilson,Dallas,Texas,Sociology
Alexander Hernandez,San Jose,California,Education
Mia Lopez,Austin,Texas,Accounting
Noah Gonzalez,Jacksonville,Florida,History
Isabella Perez,San Francisco,California,Econ
James Smith,Indianapolis,Indiana,Political Science
Charlotte Lee,Columbus,Ohio,Communications
Michael Davis,Fort Worth,Texas,Mathematics
Amelia Miller,Charlotte,North Carolina,Art History
William White,Seattle,Washington,Environmental Science
Harper Clark,Denver,Colorado,Chemistry
Matthew Hall,El Paso,Texas,Finance
Evelyn Lewis,Detroit,Michigan,Anthropology
Oliver Moore,Washington,District of Columbia,Civil Engineering
Abigail Walker,Boston,Massachusetts,Graphic Design
Elijah Baker,Memphis,Tennessee,Music
Sophia Turner,Nashville,Tennessee,Criminal Justice
Alexander Allen,Portland,Oregon,Philosophy
Ava Young,Oklahoma City,Oklahoma,Electrical Engineering
Lucas Scott,Las Vegas,Nevada,Theater
Mia King,Louisville,Kentucky,Linguistics
Benjamin Adams,Baltimore,Maryland,Physics
Madison Wright,Milwaukee,Wisconsin,Journalism
Daniel Hill,Albuquerque,New Mexico,International Relations
Harper Nelson,Tucson,Arizona,Architecture
Logan Baker,Fresno,California,Public Health
Emily Martin,Sacramento,California,Film Studies
Ethan Harris,Kansas City,Missouri,Geology
Ava Carter,Long Beach,California,Social Work
Noah Martinez,Mesa,Arizona,Religious Studies
Isabella Thompson,Atlanta,Georgia,Dance
James Mitchell,Colorado Springs,Colorado,Industrial Engineering
Charlotte Green,Virginia Beach,Virginia,Human Resource Management
William Cooper,Raleigh,North Carolina,Fine Arts
Amelia Brooks,Omaha,Nebraska,Aerospace Engineering
Lucas Peterson,Miami,Florida,Urban Studies
Mia Flores,Oakland,California,Nutrition
Benjamin Rivera,Minneapolis,Minnesota,Creative Writing
Olivia Bennett,Tulsa,Oklahoma,Forensic Science
Elijah Murphy,Wichita,Kansas,Women's Studies
Sophia Collins,New Orleans,Louisiana,Materials Science
Alexander Reed,Arlington,Virginia,Animal Science
Emma Cox,Cleveland,Ohio,Public Relations
Ethan Stewart,Bakersfield,California,Linguistics
Isabella Price,Tampa,Florida,Philosophy
Jacob Turner,Aurora,Colorado,Environmental Engineering
Mia Washington,Honolulu,Hawaii,Agriculture
Emily Bailey,Anaheim,California,Kinesiology
Noah Murphy,Santa Ana,California,Biomedical Engineering
Ava Richardson,Riverside,California,Forestry
Olivia Long,Corpus Christi,Texas,Theater
William Hughes,Lexington,Kentucky,Sociology
Sophia Foster,Stockton,California,Political Science
Benjamin Kelly,Saint Paul,Minnesota,Econ
Harper Sanders,Cincinnati,Minnesota,Music
Elijah Patterson,Pittsburgh,Ohio,History
Alexander Phillips,Greensboro,Pennsylvania,Mechanical Engineering
Mia Ross,Anchorage,North Carolina,Computer Science
Emily Ramirez,Plano,Alaska,Psychology
Noah Price,Lincoln,Texas,Nursing
Ava Ward,Orlando,Nebraska,Biology
Olivia Bryant,Irvine,Florida,Business Administration
James Jenkins,Newark,California,English
Charlotte Cook,Durham,New Jersey,Marketing
William Bell,Chula Vista,North Carolina,Sociology
Amelia Coleman,Toledo,California,Education
Lucas Parker,Fort Wayne,Ohio,Accounting
Mia Morgan,St. Petersburg,Florida,History
Benjamin Morris,Laredo,Texas,Econ
Emily Perry,Jersey City,New Jersey,Political Science
Ethan Cox,Chandler,Arizona,Communications
Ava Rivera,Madison,Wisconsin,Mathematics
Olivia Henderson,Lubbock,Texas,Art History
Alexander Barnes,Scottsdale,Arizona,Environmental Science
Sophia Cooper,Reno,Nevada,Chemistry
Emma Gray,Buffalo,New York,Finance
Elijah Simmons,Gilbert,Arizona,Anthropology
Mia Simmons,Glendale,Arizona,Civil Engineering
Emily Watson,North Las Vegas,Nevada,Graphic Design
Noah Griffin,Winston-Salem,North Carolina,Music
Ava Jordan,Chesapeake,Virginia,Criminal Justice
Olivia Snyder,Norfolk,Virginia,Philosophy
James Murphy,Fremont,California,Electrical Engineering
Charlotte Taylor,Garland,Texas,Theater
William Ward,Irving,Texas,Linguistics
Amelia Ross,Hialeah,Florida,Physics
Lucas Campbell,Richmond,Virginia,Journalism
Mia Jenkins,Boise,Idaho,International Relations
Benjamin Wright,Spokane,Washington,Architecture
Emily Coleman,Baton Rouge,Louisiana,Public Health
Ethan Price,Tacoma,Washington,Film Studies
Ava Kelly,San Bernardino,California,Geology
